{
    "_meta": {
        "sources": [
            {
                "json": "tarkingtown",
                "abbreviation": "TARK",
                "full": "Laws of Tarkingtown",
                "authors": [
                    "Jesse Bassett"
                ],
                "convertedBy": [
                    "Jesse Bassett"
                ],
                "url": "https://tools.tarkingtown.duckdns.org",
                "version": "1.0",
                "targetSchema": "1.0.0"
            }
        ],
        "dateAdded": 1692095731,
        "dateLastModified": 1692095731
    },
    "item": [
        {
            "name": "Damakos' Mace of Retribution",
            "wondrous": true,
            "tier": "major",
            "rarity": "artifact",
            "source": "tarkingtown",
            "reqAttune": "by a cleric or paladin",
            "entries": [
                "While attuned to the Mace of Retribution, the Mace holds a grudge against those who damaged the weilder. While weilding Damakos' Mace of Retribution in combat, it remembers the creatures that have damaged the weilder. On a successfull melee weapon attack targeting a creature that damaged you last turn, deal additional bludgeoning damage equal to the damage recieved by that creature.",
                {
                    "type": "inset",
                    "name": "Damakos, Paladin of Hammers",
                    "page": 0,
                    "entries": [
                        "Damakos was a worshipper of Beshaba and Tymora, goddesses of luck, and used lots of hammers."
                    ]
                }
            ]
        },
        {
            "name": "Mace of Retribution",
            "wondrous": true,
            "tier": "major",
            "rarity": "legendary",
            "source": "tarkingtown",
            "reqAttune": "by a cleric or paladin",
            "entries": [
                "While attuned to the Mace of Retribution, the Mace holds a grudge against those who damaged the weilder.",
                "When the weilder is damaged in combat by a creature, the mace stores charges equal to half the damage received (rounded down). The mace can store charges equal to twice your Constitution ability score. All charges are lost at the end of your turn.",
                "When dealing damage with the Mace of Retribution to a creature who damaged you last turn, the mace expends all charges, dealing additional thunder damage equal to the total number of charges spent."
            ]
        },
        {
            "name": "Dwarven Quick Armor",
            "type": "GV",
            "tier": "minor",
            "rarity": "uncommon",
            "valueExpression": "[[baseItem.value]] + 100",
            "source": "tarkingtown",
            "entries": [
                "This armor features a series of clever latches and hooks that make putting on and taking off armor much easier. It costs 100gp to modify the armor, but it allows the armor to be donned or doffed in half the time."
            ]
        },
        {
            "name": "Lorenzo's Locking Armor",
            "type": "GV",
            "source": "tarkingtown",
            "rarity": "rare",
            "tier": "major",
            "entries": [
                "By engraving and enchanting the edges and corners of the armor, it will snap together and hold by magic. Donning this armor takes 1 minute, and doffing is instantaneous. Entering an anti magic field or a Dispell Magic of 4th level will cause the enchantment to fail, making the armor fall off.",
                "Enchanting the armor takes 1 week and costs 1000 gp. It requires a skilled craftsman and armorer and a mage who knows the Lock spell."
            ]
        },
        {
            "name": "Armor of the Silver King",
            "type": "OTH",
            "rarity": "artifact",
            "wondrous": true,
            "weight": 3,
            "armor": true,
            "tier": "major",
            "source": "tarkingtown",
            "bonusAc": "+3",
            "entries": [
                "This 4 inch silver ball was once the property of The Silver King, a powerful mage and ruler of a war weary kingdom. He created this suit of armor to protect him at all times.",
                "As an action and with a command word, the silver ball will turn to a liquid and flow over the user, assuming the form of armor. There are 3 commands:",
                {
                    "type": "list",
                    "style": "list-hang",
                    "columns": 0,
                    "page": 0,
                    "name": "",
                    "items": [
                        "<b>Ceremonial</b> - Forms into light armor, flexible and finely ornamented with gold scrollwork and filligre.",
                        "<b>Skirmish</b> - Forms into medium armor, with a large crest on the front and back of the chest piece.",
                        "<b>War</b> - Forms into a set of heavy plate armor, with obsidian and ruby threads radiating out from the helm and the chestplate."
                    ]
                },
                "All forms may also manifest a plumed helm and cape in any color the user desires.",
                "The armor may be dismissed as an action, and the armor flows back into a sphere at the users feet."
            ]
        }
    ],
    "feat": [
        {
            "name": "Counter Caster",
            "source": "tarkingtown",
            "page": 0,
            "prerequisite": [
                {
                    "spellcasting": true,
                    "other": "can cast {@spell Counterspell}"
                }
            ],
            "entries": [
                "You have been trained as a spellcaster specially trained to counter other spellcasters.",
                "As a reaction to another spellcaster within sight casting a spell, you may make an Intelligence(arcana) check. A success vs DC 15 will reveal the school of the spell. A success vs DC 20 will reveal the spell school and level. A success of DC 25 will reveal the exact spell and level being cast.",
                "After the arcana check, success or fail, you may decide to cast {@spell Counterspell}."
            ]
        }
    ],
    "variantrule": [
        {
            "name": "Changing Weapons in Combat",
            "source": "tarkingtown",
            "page": 0,
            "ruleType": "V",
            "entries": [
                "Action in combat is hectic, and it's often not feasible to both sheathe and store a weapon while in combat with another creature without opening yourself up for damage.",
                {
                    "type": "list",
                    "items": [
                        "Equipping a new weapon in combat is a bonus action.",
                        "Storing a weapon in a sheath, scabbard or other \"quick access\" device is a bonus action.",
                        "Picking an object off the ground and using it as a weapon also takes a bonus action.",
                        "Dropping a weapon is a free action.",
                        "Retrieving equipment from a bag requires an action.",
                        "Stringing or Unstringing a bow requires an action."
                    ]
                },
                "As a result, it is possible to switch weapons in combat, but to switch and attack in the same turn requires one to drop their current weapon on the ground. Any weapon that has the <i>quickdraw</i> tag can be drawn or stowed as a free action once per turn.The <i>quickdraw</i> tag can be applied to any weapon that is specially prepared to be quickly drawn <i>and</i> stowed, like a dagger in a bandolier."
            ]
        },
        {
            "name": "Falling on another Creature",
            "source": "tarkingtown",
            "page": 0,
            "ruleType": "O",
            "entries": [
                "If a falling creature would land on another creature, the fall damage is evenly split between them. If the creature on the ground notices the falling creature, it must make a DC 15 dexterity savings throw to get out of the way. On a success, the creature takes no damage and the falling creature takes full damage. On a failed save, the damage is split evenly between the two creatures.",
                "A creature on the ground may choose to fail this savings throw and instead make a Strength savings throw of DC 10 + 1 for every 10 feet of travel. On a sucess, the creature on the ground takes no damage. On a fail, the damage is split evenly.",
                {
                    "type": "inset",
                    "name": "Author's Note",
                    "entries": [
                        "This rule was created because my players had a penchant for throwing themselves off of cliffs and ledges, and trying to land on other creatures. It seemed like fun, so I wanted to reward them for creativity.",
                        "The second part is for catching a falling player or NPC. With a strength savings throw, they can catch the falling creature, mitigating the damage to themselves, and halving the damage to the falling creature."
                    ]
                }
            ]
        },
        {
            "name": "Knockback Damage",
            "source": "tarkingtown",
            "page": 0,
            "ruleType": "O",
            "entries": [
                "If a creature would be knocked back or pushed, but is stopped by a wall or other impassible object, the creature takes 1d6 damage for each 10 ft of movement that was prevented. If the impassible object is another creature, the damage is split between them.",
                {
                    "type": "inset",
                    "page": 0,
                    "name": "Author's Note",
                    "entries": [
                        "My players love the spell {@spell Thunderwave} for some reason. When they used it in close quarters inside, it felt a bit lame that it didn't do as much without the knockback. This makes it a little more dangerous to use in close quarters, as well as giving a nice thematic bonus damage for tactical use."
                    ]
                }
            ]
        }
    ]
}